第四章：数据处理与清洗
…
``` r
filter(df, department %in% c("Sales", "IT"))
```

```
# A tibble: 8 × 7
     id name    age gender score department enroll_date
  <int> <chr> <dbl> <chr>  <dbl> <chr>      <chr>      
1     1 张三     25 M         85 Sales      2023-01-05 
2     2 李四     30 F         92 IT         2023/02/10 
3     3 王五     35 M         78 Sales      2022-12-01 
4     4 赵六     28 M         NA IT         2023-01-05 
5     7 周九     50 M         95 Sales      2023-01-05 
# ℹ 3 more rows
```

``` r
filter(df, between(age, 25, 35))
```
]
.panel[.panel-name[缺失值处理]

``` r
# 明确保留有效 score 的行
filter(df, !is.na(score), score >= 80)
```

```
# A tibble: 7 × 7
     id name    age gender score department enroll_date
  <int> <chr> <dbl> <chr>  <dbl> <chr>      <chr>      
1     1 张三     25 M         85 Sales      2023-01-05 
2     2 李四     30 F         92 IT         2023/02/10 
3     5 钱七     32 F         88 HR         2023-03-15 
4     7 周九     50 M         95 Sales      2023-01-05 
5     8 吴十     23 F         82 IT         2023-02-28 
# ℹ 2 more rows
```
…
# dplyr —— 清晰易读
arrange(df, desc(score))
```
]

.pull-right[
### 代码示例

``` r
arrange(df, department, desc(score))
```

```
# A tibble: 10 × 7
     id name    age gender score department enroll_date
  <int> <chr> <dbl> <chr>  <dbl> <chr>      <chr>      
1     5 钱七     32 F         88 HR         2023-03-15 
2     6 孙八     45 F         76 HR         2022-11-20 
3     2 李四     30 F         92 IT         2023/02/10 
4    10 陈二     31 F         91 IT         2022-10-10 
5     8 吴十     23 F         82 IT         2023-02-28 
# ℹ 5 more rows
```
…
.pull-right[
### 运行示例

``` r
select(df, name, score, everything()) %>% print(n = 5)
```

```
# A tibble: 10 × 7
  name  score    id   age gender department enroll_date
  <chr> <dbl> <int> <dbl> <chr>  <chr>      <chr>      
1 张三     85     1    25 M      Sales      2023-01-05 
2 李四     92     2    30 F      IT         2023/02/10 
3 王五     78     3    35 M      Sales      2022-12-01 
4 赵六     NA     4    28 M      IT         2023-01-05 
5 钱七     88     5    32 F      HR         2023-03-15 
# ℹ 5 more rows
```
…
# 2.4 `rename()` / `relocate()` / `distinct()`

.panelset[
.panel[.panel-name[rename()]

``` r
# 写法：新名 = 旧名
rename(df, department_label = department,
           gender_label = gender)
```

```
# A tibble: 10 × 7
     id name    age gender_label score department_label
  <int> <chr> <dbl> <chr>        <dbl> <chr>           
1     1 张三     25 M               85 Sales           
2     2 李四     30 F               92 IT              
3     3 王五     35 M               78 Sales           
4     4 赵六     28 M               NA IT              
5     5 钱七     32 F               88 HR              
# ℹ 5 more rows
# ℹ 1 more variable: enroll_date <chr>
```
]
.panel[.panel-name[relocate()]

``` r
# 调整列顺序，不改数据内容
relocate(df, score, .after = name)
```

```
# A tibble: 10 × 7
     id name  score   age gender department enroll_date
  <int> <chr> <dbl> <dbl> <chr>  <chr>      <chr>      
1     1 张三     85    25 M      Sales      2023-01-05 
2     2 李四     92    30 F      IT         2023/02/10 
3     3 王五     78    35 M      Sales      2022-12-01 
4     4 赵六     NA    28 M      IT         2023-01-05 
5     5 钱七     88    32 F      HR         2023-03-15 
# ℹ 5 more rows
```
…
.pull-right[
### 基础示例

``` r
df %>%
  mutate(weighted_score = score * 1.05) %>%
  select(name, score, weighted_score)
```

```
# A tibble: 10 × 3
  name  score weighted_score
  <chr> <dbl>          <dbl>
1 张三     85           89.2
2 李四     92           96.6
3 王五     78           81.9
4 赵六     NA           NA  
5 钱七     88           92.4
# ℹ 5 more rows
```

``` r
df %>%
  mutate(
    score_filled = replace_na(score, 0),
    pass = if_else(score >= 60, TRUE, FALSE,
                   missing = FALSE),
    .keep = "used"
  )
```

```
# A tibble: 10 × 3
  score score_filled pass 
  <dbl>        <dbl> <lgl>
1    85           85 TRUE 
2    92           92 TRUE 
3    78           78 TRUE 
4    NA            0 FALSE
5    88           88 TRUE 
# ℹ 5 more rows
```
…
``` r
# pmax/pmin：逐行对比两列取最大/最小
df %>%
  mutate(
    max_val = pmax(score, age, na.rm = TRUE),
    min_val = pmin(score, age, na.rm = TRUE)
  ) %>%
  select(name, age, score, max_val, min_val)
```

```
# A tibble: 10 × 5
  name    age score max_val min_val
  <chr> <dbl> <dbl>   <dbl>   <dbl>
1 张三     25    85      85      25
2 李四     30    92      92      30
3 王五     35    78      78      35
4 赵六     28    NA      28      28
5 钱七     32    88      88      32
# ℹ 5 more rows
```
…
# 2.5 条件逻辑：`ifelse` · `if_else` · `case_when`

.panelset[
.panel[.panel-name[ifelse()]

``` r
# base::ifelse —— 类型可能被隐式抬高为字符
df %>%
  mutate(youth = ifelse(age < 30, "青年", "非青年")) %>%
  select(name, age, youth)
```

```
# A tibble: 10 × 3
  name    age youth 
  <chr> <dbl> <chr> 
1 张三     25 青年  
2 李四     30 非青年
3 王五     35 非青年
4 赵六     28 青年  
5 钱七     32 非青年
# ℹ 5 more rows
```
]
.panel[.panel-name[if_else()]

``` r
# dplyr::if_else —— 类型严格，missing 参数处理 NA
df %>%
  mutate(flag = if_else(score >= 90, "高", "非高",
*                       missing = "缺失")) %>%
  select(name, score, flag)
```

```
# A tibble: 10 × 3
  name  score flag 
  <chr> <dbl> <chr>
1 张三     85 非高 
2 李四     92 高   
3 王五     78 非高 
4 赵六     NA 缺失 
5 钱七     88 非高 
# ℹ 5 more rows
```
…
```
# A tibble: 10 × 3
  name  score grade
  <chr> <dbl> <chr>
1 张三     85 B    
2 李四     92 A    
3 王五     78 C    
4 赵六     NA <NA> 
5 钱七     88 B    
# ℹ 5 more rows
```
…
``` r
# group_by + mutate：组内排名
df %>%
  group_by(department) %>%
  mutate(rank_in_dept =
           min_rank(desc(score))) %>%
  ungroup() %>%
  select(name, department, score,
         rank_in_dept)
```

```
# A tibble: 10 × 4
  name  department score rank_in_dept
  <chr> <chr>      <dbl>        <int>
1 张三  Sales         85            3
2 李四  IT            92            1
3 王五  Sales         78            4
4 赵六  IT            NA           NA
5 钱七  HR            88            1
# ℹ 5 more rows
```
…
``` r
# 在 mutate 中批量标准化
df %>%
  mutate(across(c(age, score),
                ~ (.x - mean(.x, na.rm = TRUE)) /
                  sd(.x, na.rm = TRUE),
                .names = "{.col}_z")) %>%
  select(name, ends_with("_z"))
```

```
# A tibble: 10 × 3
  name    age_z score_z
  <chr>   <dbl>   <dbl>
1 张三  -0.914   -0.189
2 李四  -0.328    0.892
3 王五   0.258   -1.27 
4 赵六  -0.562   NA    
5 钱七  -0.0937   0.274
# ℹ 5 more rows
```
…
```
# A tibble: 1 × 7
     id name    age gender score department enroll_date
  <int> <chr> <dbl> <chr>  <dbl> <chr>      <chr>      
1     4 赵六     28 M         NA IT         2023-01-05 
```

``` r
# if_all：所有指定列都满足条件
df %>% filter(if_all(c(score), ~ .x > 80))
```

```
# A tibble: 7 × 7
     id name    age gender score department enroll_date
  <int> <chr> <dbl> <chr>  <dbl> <chr>      <chr>      
1     1 张三     25 M         85 Sales      2023-01-05 
2     2 李四     30 F         92 IT         2023/02/10 
3     5 钱七     32 F         88 HR         2023-03-15 
4     7 周九     50 M         95 Sales      2023-01-05 
5     8 吴十     23 F         82 IT         2023-02-28 
# ℹ 2 more rows
```
…
``` r
# add_count：把频数加回原表
df %>% add_count(department, name = "n_dept") %>%
  select(name, department, n_dept)
```

```
# A tibble: 10 × 3
  name  department n_dept
  <chr> <chr>       <int>
1 张三  Sales           4
2 李四  IT              4
3 王五  Sales           4
4 赵六  IT              4
5 钱七  HR              2
# ℹ 5 more rows
```
…
.pull-right[
### 宽 → 长

``` r
df_long <- df_wide %>%
  pivot_longer(
*   cols     = c(math, english),
    names_to = "subject",
    values_to = "score"
  )
df_long
```

```
# A tibble: 6 × 3
     id subject score
  <int> <chr>   <dbl>
1     1 math       85
2     1 english    90
3     2 math       92
4     2 english    88
5     3 math       78
# ℹ 1 more row
```
…
``` r
# 原位把 NA 替换成指定值
df %>%
  mutate(score_clean = replace_na(score, 0)) %>%
  select(name, score, score_clean)
```

```
# A tibble: 10 × 3
  name  score score_clean
  <chr> <dbl>       <dbl>
1 张三     85          85
2 李四     92          92
3 王五     78          78
4 赵六     NA           0
5 钱七     88          88
# ℹ 5 more rows
```
…
.panelset[
.panel[.panel-name[统一日期格式]

``` r
# 在 mutate 里用 str_replace_all 统一分隔符
df %>%
  mutate(
*   enroll_norm = str_replace_all(enroll_date, "/", "-")
  ) %>%
  select(enroll_date, enroll_norm)
```

```
# A tibble: 10 × 2
  enroll_date enroll_norm
  <chr>       <chr>      
1 2023-01-05  2023-01-05 
2 2023/02/10  2023-02-10 
3 2022-12-01  2022-12-01 
4 2023-01-05  2023-01-05 
5 2023-03-15  2023-03-15 
# ℹ 5 more rows
```
…
``` r
df %>%
  mutate(
    enroll = ymd(str_replace_all(
*                  enroll_date, "/", "-")),
    enroll_year  = year(enroll),
    enroll_month = month(enroll, label = TRUE),
*   enroll_floor = floor_date(enroll, "month")
  ) %>%
  select(enroll_date, enroll, enroll_year,
         enroll_month, enroll_floor)
```

```
# A tibble: 10 × 5
  enroll_date enroll     enroll_year enroll_month
  <chr>       <date>           <dbl> <ord>       
1 2023-01-05  2023-01-05        2023 1月         
2 2023/02/10  2023-02-10        2023 2月         
3 2022-12-01  2022-12-01        2022 12月        
4 2023-01-05  2023-01-05        2023 1月         
5 2023-03-15  2023-03-15        2023 3月         
# ℹ 5 more rows
# ℹ 1 more variable: enroll_floor <date>
```
…
.panelset[
.panel[.panel-name[周几 & 日]

``` r
df %>%
  mutate(
    enroll     = ymd(str_replace_all(enroll_date, "/", "-")),
*   enroll_wday = wday(enroll, label = TRUE),
    enroll_day  = mday(enroll)
  ) %>%
  select(name, enroll_date, enroll_wday, enroll_day)
```

```
# A tibble: 10 × 4
  name  enroll_date enroll_wday enroll_day
  <chr> <chr>       <ord>            <int>
1 张三  2023-01-05  周四                 5
2 李四  2023/02/10  周五                10
3 王五  2022-12-01  周四                 1
4 赵六  2023-01-05  周四                 5
5 钱七  2023-03-15  周三                15
# ℹ 5 more rows
```
…
